[
  {
    "model": "parent_categories.parentcategory",
    "pk": 1,
    "fields": {
      "name": "Agriculture et alimentation"
    }
  },
  {
    "model": "parent_categories.parentcategory",
    "pk": 2,
    "fields": {
      "name": "Outils et équipement de construction"
    }
  },
  {
    "model": "parent_categories.parentcategory",
    "pk": 3,
    "fields": {
      "name": "Animaux et animaux de compagnie"
    }
  },
  {
    "model": "parent_categories.parentcategory",
    "pk": 4,
    "fields": {
      "name": "Electronique et vidéo"
    }
  },
  {
    "model": "parent_categories.parentcategory",
    "pk": 5,
    "fields": {
      "name": "Mode et beauté"
    }
  },
  {
    "model": "parent_categories.parentcategory",
    "pk": 6,
    "fields": {
      "name": "Maison, mobilier et jardin"
    }
  },
  {
    "model": "parent_categories.parentcategory",
    "pk": 7,
    "fields": {
      "name": "Téléphones mobiles et tablettes"
    }
  },
  {
    "model": "parent_categories.parentcategory",
    "pk": 8,
    "fields": {
      "name": "Immobilier"
    }
  },
  {
    "model": "parent_categories.parentcategory",
    "pk": 9,
    "fields": {
      "name": "Véhicules"
    }
  },
  {
    "model": "parent_categories.parentcategory",
    "pk": 10,
    "fields": {
      "name": "Loisirs, art et sports"
    }
  },
  {
    "model": "parent_categories.parentcategory",
    "pk": 11,
    "fields": {
      "name": "Les fournitures de nettoyage"
    }
  },
  {
    "model": "parent_categories.parentcategory",
    "pk": 12,
    "fields": {
      "name": "Nettoyeurs robotiques"
    }
  },
  {
    "model": "parent_categories.parentcategory",
    "pk": 13,
    "fields": {
      "name": "Téléphone"
    }
  }
]