[
  {
    "model": "geolocation.geolocation",
    "pk": 1,
    "fields": {
      "lat": 7.6906056,
      "long": -5.029841
    }
  },
  {
    "model": "geolocation.geolocation",
    "pk": 2,
    "fields": {
      "lat": 5.3600,
      "long": -4.0083
    }
  },
  {
    "model": "geolocation.geolocation",
    "pk": 3,
    "fields": {
      "lat": 6.8276,
      "long": -5.2893
    }
  }
]
