[
  {
    "model": "categories.category",
    "pk": 1,
    "fields": {
      "parent": "Agriculture et Alimentation",
      "name": "Aliments, Suppléments et Semences"
    }
  },
  {
    "model": "categories.category",
    "pk": 2,
    "fields": {
      "parent": "Agriculture et Alimentation",
      "name": "Bétail, Volaille et Poisson"
    }
  },
  {
    "model": "categories.category",
    "pk": 3,
    "fields": {
      "parent": "Agriculture et Alimentation",
      "name": "Plante, Produits animaux"
    }
  },
  {
    "model": "categories.category",
    "pk": 4,
    "fields": {
      "parent": "Agriculture et Alimentation",
      "name": "Repas et Boissons"
    }
  },
  {
    "model": "categories.category",
    "pk": 5,
    "fields": {
      "parent": "Agriculture et Alimentation",
      "name": "Machines agricoles et Equipement" 
    }
  },
  {
    "model": "categories.category",
    "pk": 6,
    "fields": {
      "parent": "Agriculture et Alimentation",
      "name": "Services agricoles"
    }
  },


  {
    "model": "categories.category",
    "pk": 7,
    "fields": {
      "parent": "Outils et équipement de construction",
      "name": "Fours industriels"
    }
  },
  {
    "model": "categories.category",
    "pk": 8,
    "fields": {
      "parent": "Outils et équipement de construction",
      "name": "Équipement de magasin"
    }
  },
  {
    "model": "categories.category",
    "pk": 9,
    "fields": {
      "parent": "Outils et équipement de construction",
      "name": "Équipement de restauration et de restauration"
    }
  },
  {
    "model": "categories.category",
    "pk": 10,
    "fields": {
      "parent": "Outils et équipement de construction",
      "name": "Équipement de fabrication"
    }
  },
  {
    "model": "categories.category",
    "pk": 11,
    "fields": {
      "parent": "Outils et équipement de construction",
      "name": "Équipement médical"
    }
  },
  {
    "model": "categories.category",
    "pk": 12,
    "fields": {
      "parent": "Outils et équipement de construction",
      "name": "Équipement de sécurité"
    }
  },
  {
    "model": "categories.category",
    "pk": 13,
    "fields": {
      "parent": "Outils et équipement de construction",
      "name": "Matériel d'impression"
    }
  },
  {
    "model": "categories.category",
    "pk": 14,
    "fields": {
      "parent": "Outils et équipement de construction",
      "name": "Équipement de salon"
    }
  },
  {
    "model": "categories.category",
    "pk": 15,
    "fields": {
      "parent": "Outils et équipement de construction",
      "name": "Papeterie"
    }
  },
  {
    "model": "categories.category",
    "pk": 16,
    "fields": {
      "parent": "Outils et équipement de construction",
      "name": "Matériaux et outils de fabrication"
    }
  },
  {
    "model": "categories.category",
    "pk": 17,
    "fields": {
      "parent": "Outils et équipement de construction",
      "name": "Éclairage de scène et effets"
    }
  },
  {
    "model": "categories.category",
    "pk": 18,
    "fields": {
      "parent": "Outils et équipement de construction",
      "name": "Équipement commercial et industriel"
    }
  },
  {
    "model": "categories.category",
    "pk": 19,
    "fields": {
      "parent": "Outils et équipement de construction",
      "name": "Construction et matériaux de construction"
    }
  },
  {
    "model": "categories.category",
    "pk": 20,
    "fields": {
      "parent": "Outils et équipement de construction",
      "name": "Services de construction"
    }
  },


  {
    "model": "categories.category",
    "pk": 21,
    "fields": {
      "parent": "Animaux et animaux de compagnie",
      "name": "Chiens et chats"
    }
  },
  {
    "model": "categories.category",
    "pk": 22,
    "fields": {
      "parent": "Animaux et animaux de compagnie",
      "name": "Autres animaux"
    }
  },
  {
    "model": "categories.category",
    "pk": 23,
    "fields": {
      "parent": "Animaux et animaux de compagnie",
      "name": "Accessoires pour animaux de compagnie"
    }
  },


  {
    "model": "categories.category",
    "pk": 24,
    "fields": {
      "parent": "Electronique et vidéo",
      "name": "Jeux vidéo et accessoires"
    }
  },
  {
    "model": "categories.category",
    "pk": 25,
    "fields": {
      "parent": "Electronique et vidéo",
      "name": "Caméras et accessoires"
    }
  },
  {
    "model": "categories.category",
    "pk": 26,
    "fields": {
      "parent": "Electronique et vidéo",
      "name": "Ordinateurs et portables"
    }
  },
  {
    "model": "categories.category",
    "pk": 27,
    "fields": {
      "parent": "Electronique et vidéo",
      "name": "Écouteurs"
    }
  },
  {
    "model": "categories.category",
    "pk": 28,
    "fields": {
      "parent": "Electronique et vidéo",
      "name": "Produits de réseautage"
    }
  },
  {
    "model": "categories.category",
    "pk": 29,
    "fields": {
      "parent": "Electronique et vidéo",
      "name": "Caméras photo et vidéo"
    }
  },
  {
    "model": "categories.category",
    "pk": 30,
    "fields": {
      "parent": "Electronique et vidéo",
      "name": "Imprimantes et scanners"
    }
  },
  {
    "model": "categories.category",
    "pk": 31,
    "fields": {
      "parent": "Electronique et vidéo",
      "name": "Équipement audio et musical"
    }
  },
  {
    "model": "categories.category",
    "pk": 32,
    "fields": {
      "parent": "Electronique et vidéo",
      "name": "Sécurité et surveillance"
    }
  },
  {
    "model": "categories.category",
    "pk": 33,
    "fields": {
      "parent": "Electronique et vidéo",
      "name": "TV, audio et vidéo"
    }
  },


  {
    "model": "categories.category",
    "pk": 34,
    "fields": {
      "parent": "Mode et beauté",
      "name": "Chaussures"
    }
  },
  {
    "model": "categories.category",
    "pk": 35,
    "fields": {
      "parent": "Mode et beauté",
      "name": "Sacs"
    }
  },
  {
    "model": "categories.category",
    "pk": 36,
    "fields": {
      "parent": "Mode et beauté",
      "name": "Corps de bain"
    }
  },
  {
    "model": "categories.category",
    "pk": 37,
    "fields": {
      "parent": "Mode et beauté",
      "name": "Vêtements"
    }
  },
  {
    "model": "categories.category",
    "pk": 38,
    "fields": {
      "parent": "Mode et beauté",
      "name": "Fragrance"
    }
  },
  {
    "model": "categories.category",
    "pk": 39,
    "fields": {
      "parent": "Mode et beauté",
      "name": "Beauté des cheveux"
    }
  },
  {
    "model": "categories.category",
    "pk": 40,
    "fields": {
      "parent": "Mode et beauté",
      "name": "Maquillage"
    }
  },
  {
    "model": "categories.category",
    "pk": 41,
    "fields": {
      "parent": "Mode et beauté",
      "name": "Soin de la peau"
    }
  },
  {
    "model": "categories.category",
    "pk": 42,
    "fields": {
      "parent": "Mode et beauté",
      "name": "Santé & Beauté"
    }
  },
  {
    "model": "categories.category",
    "pk": 43,
    "fields": {
      "parent": "Mode et beauté",
      "name": "Montres, bijoux et accessoires"
    }
  },
  {
    "model": "categories.category",
    "pk": 44,
    "fields": {
      "parent": "Mode et beauté",
      "name": "Bébés et enfants"
    }
  },


  {
    "model": "categories.category",
    "pk": 45,
    "fields": {
      "parent": "Maison, mobilier et jardin",
      "name": "Maison et cuisine"
    }
  },
  {
    "model": "categories.category",
    "pk": 46,
    "fields": {
      "parent": "Maison, mobilier et jardin",
      "name": "Meubles"
    }
  },
  {
    "model": "categories.category",
    "pk": 47,
    "fields": {
      "parent": "Maison, mobilier et jardin",
      "name": "Électroménagers"
    }
  },
  {
    "model": "categories.category",
    "pk": 48,
    "fields": {
      "parent": "Maison, mobilier et jardin",
      "name": "Décor, jardin et accessoires"
    }
  },


  {
    "model": "categories.category",
    "pk": 49,
    "fields": {
      "parent": "Téléphones mobiles et tablettes",
      "name": "Accessoires"
    }
  },
  {
    "model": "categories.category",
    "pk": 50,
    "fields": {
      "parent": "Téléphones mobiles et tablettes",
      "name": "Téléphones et téléphones portables"
    }
  },
  {
    "model": "categories.category",
    "pk": 51,
    "fields": {
      "parent": "Téléphones mobiles et tablettes",
      "name": "tablettes de téléphone"
    }
  },


  {
    "model": "categories.category",
    "pk": 52,
    "fields": {
      "parent": "Immobilier",
      "name": "Terrains et parcelles à louer"
    }
  },
  {
    "model": "categories.category",
    "pk": 53,
    "fields": {
      "parent": "Immobilier",
      "name": "Terrains et parcelles à vendre"
    }
  },
  {
    "model": "categories.category",
    "pk": 54,
    "fields": {
      "parent": "Immobilier",
      "name": "Maisons et appartements à louer"
    }
  },
  {
    "model": "categories.category",
    "pk": 55,
    "fields": {
      "parent": "Immobilier",
      "name": "Maisons et appartements à vendre"
    }
  },
  {
    "model": "categories.category",
    "pk": 56,
    "fields": {
      "parent": "Immobilier",
      "name": "Bureau et magasins"
    }
  },
  {
    "model": "categories.category",
    "pk": 57,
    "fields": {
      "parent": "Immobilier",
      "name": "Propriété commerciale à louer"
    }
  },
  {
    "model": "categories.category",
    "pk": 58,
    "fields": {
      "parent": "Immobilier",
      "name": "Propriété commerciale à vendre"
    }
  },
  {
    "model": "categories.category",
    "pk": 59,
    "fields": {
      "parent": "Immobilier",
      "name": "Courte Let"
    }
  },
  {
    "model": "categories.category",
    "pk": 60,
    "fields": {
      "parent": "Immobilier",
      "name": "Locations temporaires et de vacances"
    }
  },
  {
    "model": "categories.category",
    "pk": 61,
    "fields": {
      "parent": "Immobilier",
      "name": "Centres d'événements et salles"
    }
  },


  {
    "model": "categories.category",
    "pk": 62,
    "fields": {
      "parent": "Véhicules",
      "name": "Voitures"
    }
  },
  {
    "model": "categories.category",
    "pk": 63,
    "fields": {
      "parent": "Véhicules",
      "name": "Accessoires de voiture"
    }
  },
  {
    "model": "categories.category",
    "pk": 64,
    "fields": {
      "parent": "Véhicules",
      "name": "Autobus et microbus"
    }
  },
  {
    "model": "categories.category",
    "pk": 65,
    "fields": {
      "parent": "Véhicules",
      "name": "Camions et remorques"
    }
  },
  {
    "model": "categories.category",
    "pk": 66,
    "fields": {
      "parent": "Véhicules",
      "name": "Motocyclettes"
    }
  },
  {
    "model": "categories.category",
    "pk": 67,
    "fields": {
      "parent": "Véhicules",
      "name": "Motomarine et bateaux"
    }
  },
  {
    "model": "categories.category",
    "pk": 68,
    "fields": {
      "parent": "Véhicules",
      "name": "Autres véhicules"
    }
  },
  {
    "model": "categories.category",
    "pk": 69,
    "fields": {
      "parent": "Véhicules",
      "name": "Camions, commerciaux et agricoles"
    }
  },

  {
    "model": "categories.category",
    "pk": 70,
    "fields": {
      "parent": "Véhicules",
      "name": "espace réservé"
    }
  },


  {
    "model": "categories.category",
    "pk": 71,
    "fields": {
      "parent": "Loisirs, art et sports",
      "name": "Livres, CD et DVD"
    }
  },
  {
    "model": "categories.category",
    "pk": 72,
    "fields": {
      "parent": "Loisirs, art et sports",
      "name": "Instruments de musique"
    }
  },
  {
    "model": "categories.category",
    "pk": 73,
    "fields": {
      "parent": "Loisirs, art et sports",
      "name": "Art - Objets de collection"
    }
  },
  {
    "model": "categories.category",
    "pk": 74,
    "fields": {
      "parent": "Loisirs, art et sports",
      "name": "Artisanat"
    }
  },
  {
    "model": "categories.category",
    "pk": 75,
    "fields": {
      "parent": "Loisirs, art et sports",
      "name": "Articles de sport et vélos"
    }
  },
  {
    "model": "categories.category",
    "pk": 76,
    "fields": {
      "parent": "Loisirs, art et sports",
      "name": "Jouets et jeux"
    }
  }
]
