[
  {
    "model": "rentals.rental",
    "pk": 1,
    "fields": {

      "title": "maison1",
      "price": 100000.00,
      "category": "Maisons et appartements à vendre",
      "image1": "house1_1.jpg",
      "image2": "house1_2.jpg",
      "image3": "house1_3.jpg",
      "image4": "house1_4.jpg",
      "image5": "house1_5.jpg",
      "seller_id": 1,
      "amenities_id": 1,
      "geolocation_id": 1,
      "publish": false

    }
  },
  {
    "model": "rentals.rental",
    "pk": 2,
    "fields": {
      "title": "maison2",
      "price": 100000.00,
      "category": "Maisons et appartements à vendre",
      "image1": "house2_1.jpg",
      "image2": "house2_2.jpg",
      "image3": "house2_3.jpg",
      "image4": "house2_4.jpg",
      "image5": "house2_5.jpg",
      "seller_id": 1,
      "amenities_id": 2,
      "geolocation_id": 2,
      "publish": false
    }
  },
  {
    "model": "rentals.rental",
    "pk": 3,
    "fields": {
      "title": "maison3",
      "price": 100000.00,
      "category": "Maisons et appartements à vendre",
      "image1": "house3_1.jpg",
      "image2": "house3_2.jpg",
      "image3": "house3_3.jpg",
      "image4": "house3_4.jpg",
      "image5": "house3_5.jpg",
      "seller_id": 1,
      "amenities_id": 3,
      "geolocation_id": 3,
      "publish": false
    }
  }
]
