[
  {
    "model": "orders.order",
    "pk": 1,
    "fields": {
      "koid": "112-484153-0148240",
      "customer_id": "kwasispam@gmail.com",
      "total_price": 10,
      "billing_address_id": 1,
      "delivery_method": "PU",
      "status": "C",
      "created_at": "2019-01-31",
      "updated_at": "2019-01-31",
      
      "payment_method": "MTN"
    }
  },
  {
    "model": "orders.order",
    "pk": 2,
    "fields": {
      "koid": "112-484153-0148241",
      "customer_id": "kwasispam@gmail.com",
      "shipping_address_id": 1,
      "billing_address_id": 1,
      "delivery_method": "DL",
      "status": "C",
      "created_at": "2019-02-15",
      "updated_at": "2019-02-15",
      
      "payment_method": "C"
    }
  },
  {
    "model": "orders.order",
    "pk": 3,
    "fields": {
      "koid": "112-484153-0148242",
      "customer_id": "kwasispam@gmail.com",
      "shipping_address_id": 1,
      "billing_address_id": 1,
      "delivery_method": "DL",
      "status": "C",
      "created_at": "2019-03-31",
      "updated_at": "2019-03-31",
      
      "payment_method": "C"
    }
  },
    {
    "model": "orders.order",
    "pk": 4,
    "fields": {

      "koid": "112-484153-0148240",
      "customer_id": "kwasispam@gmail.com",
      "shipping_address_id": 1,
      "billing_address_id": 1,
      "delivery_method": "DL",
      "status": "C",
      "created_at": "2019-04-30",
      "updated_at": "2019-04-30",
      
      "payment_method": "MTN"
    }
  },
  {
    "model": "orders.order",
    "pk": 5,
    "fields": {
      "koid": "112-484153-0148241",
      "customer_id": "kwasispam@gmail.com",
      "total_price": 0,
      "shipping_address_id": 1,
      "billing_address_id": 1,
      "delivery_method": "DL",
      "status": "C",
      "created_at": "2019-05-31",
      "updated_at": "2019-05-31",
      
      "payment_method": "C"
    }
  },
  {
    "model": "orders.order",
    "pk": 6,
    "fields": {
      "koid": "112-484153-0148242",
      "customer_id": "kwasispam@gmail.com",
      "shipping_address_id": 1,
      "billing_address_id": 1,
      "delivery_method": "DL",
      "status": "C",
      "created_at": "2020-01-31",
      "updated_at": "2020-01-31",
      
      "payment_method": "C"
    }
  },

    {
    "model": "orders.order",
    "pk": 7,
    "fields": {
      "koid": "112-484153-0148240",
      "customer_id": "kwasispam@gmail.com",
      "shipping_address_id": 1,
      "billing_address_id": 1,
      "delivery_method": "DL",
      "status": "C",
      "created_at": "2019-08-24",
      "updated_at": "2019-08-24",
      
      "payment_method": "MTN"
    }
  },
  {
    "model": "orders.order",
    "pk": 8,
    "fields": {
      "koid": "112-484153-0148241",
      "customer_id": "kwasispam@gmail.com",
      "shipping_address_id": 1,
      "billing_address_id": 1,
      "delivery_method": "DL",
      "status": "C",
      "created_at": "2019-09-30",
      "updated_at": "2019-09-30",
      
      "payment_method": "C"
    }
  },
  {
    "model": "orders.order",
    "pk": 9,
    "fields": {
      "koid": "112-484153-0148242",
      "customer_id": "kwasispam@gmail.com",
      "total_price": 0,
      "shipping_address_id": 1,
      "billing_address_id": 1,
      "delivery_method": "DL",
      "status": "C",
      "created_at": "2019-10-14",
      "updated_at": "2019-10-14",
      
      "payment_method": "C"
    }
  },
    {
    "model": "orders.order",
    "pk": 10,
    "fields": {
      "koid": "112-484153-0148240",
      "customer_id": "kwasispam@gmail.com",
      "total_price": 0,
      "shipping_address_id": 1,
      "billing_address_id": 1,
      "delivery_method": "DL",
      "status": "C",
      "created_at": "2019-11-30",
      "updated_at": "2019-11-30",
      
      "payment_method": "MTN"
    }
  },
  {
    "model": "orders.order",
    "pk": 11,
    "fields": {
      "koid": "112-484153-0148241",
      "customer_id": "kwasispam@gmail.com",
      "total_price": 0,
      "shipping_address_id": 1,
      "billing_address_id": 1,
      "delivery_method": "DL",
      "status": "C",
      "created_at": "2019-12-31",
      "updated_at": "2019-12-31",
      
      "payment_method": "C"
    }
  },
  {
    "model": "orders.order",
    "pk": 12,
    "fields": {
      "koid": "112-484153-0148242",
      "customer_id": "kwasi.adu@gmail.com",
      "total_price": 0,
      "shipping_address_id": 1,
      "billing_address_id": 1,
      "delivery_method": "DL",
      "status": "C",
      "created_at": "2020-01-31",
      "updated_at": "2020-01-31",
      
      "payment_method": "C"
    }
  },
    {
    "model": "orders.order",
    "pk": 13,
    "fields": {

      "koid": "112-484153-0148240",
      "customer_id": "kwasispam@gmail.com",
      "total_price": 0,
      "shipping_address_id": 1,
      "billing_address_id": 1,
      "delivery_method": "DL",
      "status": "C",
      "created_at": "2020-02-05",
      "updated_at": "2020-02-05",
      
      "payment_method": "MTN"
    }
  },
  {
    "model": "orders.order",
    "pk": 14,
    "fields": {
      "koid": "112-484153-0148241",
      "customer_id": "kwasispam@gmail.com",
      "total_price": 0,
      "shipping_address_id": 1,
      "billing_address_id": 1,
      "delivery_method": "DL",
      "status": "C",
      "created_at": "2020-02-12",
      "updated_at": "2020-02-12",
      
      "payment_method": "C"
    }
  },
  {
    "model": "orders.order",
    "pk": 15,
    "fields": {
      "koid": "112-484153-0148242",
      "customer_id": "kwasi.adu@gmail.com",
      "total_price": 0,
      "shipping_address_id": 1,
      "billing_address_id": 1,
      "delivery_method": "DL",
      "status": "C",
      "created_at": "2020-02-27",
      "updated_at": "2020-02-27",
      
      "payment_method": "C"
    }
  }
]
