[
  {
    "model": "addresses.address",
    "pk": 1,
    "fields": {
      "first_name": "Fulgence",
      "last_name": "Tonfack",
      "phone": "408-999-1111",
      "street_line1": "100 California St",
      "street_line2": "Apt No 12",
      "city": "Abidjan",
      "country": "Ivory Coast",
      "verified": true,
      "default": true,
      "user_id": 1
    }
  },
  {
    "model": "addresses.address",
    "pk": 2,
    "fields": {
      "first_name": "Kwasi",
      "last_name": "Adu",
      "phone": "408-999-1111",
      "street_line1": "200 California St",
      "street_line2": "Apt No 12",
      "city": "Abidjan",
      "country": "Ivory Coast",
      "verified": false,
      "default": true,
      "user_id": 2
    }
  },
  {
    "model": "addresses.address",
    "pk": 3,
    "fields": {
      "first_name": "Kwasi",
      "last_name": "Adu",
      "phone": "408-999-1111",
      "street_line1": "200 California St",
      "street_line2": "Apt No 12",
      "city": "Abidjan",
      "country": "Ivory Coast",
      "verified": false,
      "default": true,
      "user_id": 3
    }
  }
]
